module github.com/kousikmitra/kitten-tracker

go 1.22.1

require (
	github.com/99designs/gqlgen v0.17.45
	github.com/golang-jwt/jwt/v5 v5.2.1
	github.com/golang-migrate/migrate/v4 v4.17.0
	github.com/joho/godotenv v1.5.1
	github.com/stretchr/testify v1.9.0
	github.com/vektah/gqlparser/v2 v2.5.11
	golang.org/x/crypto v0.17.0
)

require (
	github.com/agnivade/levenshtein v1.1.1 // indirect
	github.com/cpuguy83/go-md2man/v2 v2.0.2 // indirect
	github.com/davecgh/go-spew v1.1.1 // indirect
	github.com/google/uuid v1.6.0 // indirect
	github.com/gorilla/websocket v1.5.0 // indirect
	github.com/hashicorp/errwrap v1.1.0 // indirect
	github.com/hashicorp/go-multierror v1.1.1 // indirect
	github.com/hashicorp/golang-lru/v2 v2.0.7 // indirect
	github.com/lib/pq v1.10.9 // indirect
	github.com/mitchellh/mapstructure v1.5.0 // indirect
	github.com/pmezard/go-difflib v1.0.0 // indirect
	github.com/russross/blackfriday/v2 v2.1.0 // indirect
	github.com/sosodev/duration v1.2.0 // indirect
	github.com/urfave/cli/v2 v2.27.1 // indirect
	github.com/xrash/smetrics v0.0.0-20201216005158-039620a65673 // indirect
	go.uber.org/atomic v1.7.0 // indirect
	golang.org/x/mod v0.16.0 // indirect
	golang.org/x/text v0.14.0 // indirect
	golang.org/x/tools v0.19.0 // indirect
	gopkg.in/yaml.v3 v3.0.1 // indirect
)
